{
  "SimID": "113121",
  "SimType": "SoundOff",
  "RoundStartTime": [
    3.04857587814331,
    6.11517190933228,
    21.1035957336426,
    38.7732734680176,
    43.3966407775879,
    55.6368865966797,
    67.6439971923828,
    71.6047592163086,
    88.7783279418945,
    108.601425170898,
    136.770538330078,
    144.210815429688,
    161.785873413086,
    169.654632568359,
    174.211761474609,
    178.073455810547,
    182.996932983398,
    192.520721435547,
    196.514633178711,
    227.434600830078,
    231.793518066406,
    243.273239135742,
    254.322525024414,
    273.387115478516,
    278.110595703125,
    283.032562255859,
    312.430694580078,
    322.817749023438,
    336.219329833984,
    351.243560791016,
    368.191253662109,
    381.195465087891,
    386.051513671875,
    422.838043212891
  ],
  "CarAware": [
    15.8717222213745,
    16.0704345703125,
    40.6809158325195,
    40.9126777648926,
    74.3403167724609,
    74.5390167236328,
    97.3757934570313,
    97.5745162963867,
    178.259048461914,
    178.29216003418,
    179.351928710938,
    179.517532348633,
    195.024551391602,
    195.157043457031,
    251.27555847168,
    251.441177368164,
    283.052551269531,
    284.377258300781,
    284.509674072266,
    317.087738037109,
    317.253601074219,
    351.627899169922,
    351.892852783203,
    384.494720458984,
    384.660339355469
  ],
  "Death": {
    "death0": {
      "time": 4.279999732971191,
      "ballVelocity": 6.412402629852295,
      "ballColor": "Pink",
      "hitColor": "Untagged",
      "obstacleType": "_New_Base_Deathline",
      "obstacleNumber": 1,
      "points": 0
    },
    "death1": {
      "time": 19.260000228881837,
      "ballVelocity": 4.57885217666626,
      "ballColor": "Pink",
      "hitColor": "TealCollider",
      "obstacleType": "Ring",
      "obstacleNumber": 1,
      "points": 1
    },
    "death2": {
      "time": 36.939998626708987,
      "ballVelocity": 4.453760147094727,
      "ballColor": "Pink",
      "hitColor": "YellowCollider",
      "obstacleType": "Ring",
      "obstacleNumber": 1,
      "points": 2
    },
    "death3": {
      "time": 41.55999755859375,
      "ballVelocity": 11.501111030578614,
      "ballColor": "Pink",
      "hitColor": "Untagged",
      "obstacleType": "_New_Base_Deathline",
      "obstacleNumber": 1,
      "points": 2
    },
    "death4": {
      "time": 53.79999923706055,
      "ballVelocity": 6.700180530548096,
      "ballColor": "Pink",
      "hitColor": "YellowCollider",
      "obstacleType": "Ring",
      "obstacleNumber": 1,
      "points": 2
    },
    "death5": {
      "time": 65.79999542236328,
      "ballVelocity": 8.219260215759278,
      "ballColor": "Pink",
      "hitColor": "YellowCollider",
      "obstacleType": "Ring",
      "obstacleNumber": 1,
      "points": 2
    },
    "death6": {
      "time": 69.76000213623047,
      "ballVelocity": 5.269667625427246,
      "ballColor": "Pink",
      "hitColor": "TealCollider",
      "obstacleType": "Ring",
      "obstacleNumber": 1,
      "points": 2
    },
    "death7": {
      "time": 86.93999481201172,
      "ballVelocity": 4.480234146118164,
      "ballColor": "Pink",
      "hitColor": "PurpleCollider",
      "obstacleType": "Ring",
      "obstacleNumber": 1,
      "points": 3
    },
    "death8": {
      "time": 106.73999786376953,
      "ballVelocity": 4.358745098114014,
      "ballColor": "Pink",
      "hitColor": "PurpleCollider",
      "obstacleType": "Ring",
      "obstacleNumber": 1,
      "points": 4
    },
    "death9": {
      "time": 134.9199981689453,
      "ballVelocity": 4.269299030303955,
      "ballColor": "Purple",
      "hitColor": "PinkCollider",
      "obstacleType": "OuterSquare",
      "obstacleNumber": 2,
      "points": 6
    },
    "death10": {
      "time": 142.36000061035157,
      "ballVelocity": 4.345356464385986,
      "ballColor": "Pink",
      "hitColor": "TealCollider",
      "obstacleType": "Ring",
      "obstacleNumber": 1,
      "points": 6
    },
    "death11": {
      "time": 159.94000244140626,
      "ballVelocity": 3.900621175765991,
      "ballColor": "Pink",
      "hitColor": "PurpleCollider",
      "obstacleType": "Ring",
      "obstacleNumber": 1,
      "points": 6
    },
    "death12": {
      "time": 167.8000030517578,
      "ballVelocity": 8.233431816101075,
      "ballColor": "Pink",
      "hitColor": "TealCollider",
      "obstacleType": "Ring",
      "obstacleNumber": 1,
      "points": 6
    },
    "death13": {
      "time": 172.3000030517578,
      "ballVelocity": 20.68681526184082,
      "ballColor": "Pink",
      "hitColor": "TealCollider",
      "obstacleType": "Ring",
      "obstacleNumber": 1,
      "points": 6
    },
    "death14": {
      "time": 176.13999938964845,
      "ballVelocity": 12.165844917297364,
      "ballColor": "Pink",
      "hitColor": "TealCollider",
      "obstacleType": "Ring",
      "obstacleNumber": 1,
      "points": 6
    },
    "death15": {
      "time": 181.1599884033203,
      "ballVelocity": 6.412402629852295,
      "ballColor": "Pink",
      "hitColor": "Untagged",
      "obstacleType": "_New_Base_Deathline",
      "obstacleNumber": 1,
      "points": 6
    },
    "death16": {
      "time": 190.67999267578126,
      "ballVelocity": 6.2693657875061039,
      "ballColor": "Pink",
      "hitColor": "Untagged",
      "obstacleType": "_New_Base_Deathline",
      "obstacleNumber": 1,
      "points": 6
    },
    "death17": {
      "time": 194.6599884033203,
      "ballVelocity": 4.94088888168335,
      "ballColor": "Pink",
      "hitColor": "TealCollider",
      "obstacleType": "Ring",
      "obstacleNumber": 1,
      "points": 6
    },
    "death18": {
      "time": 225.59999084472657,
      "ballVelocity": 5.369894027709961,
      "ballColor": "Purple",
      "hitColor": "TealCollider",
      "obstacleType": "OuterSquare",
      "obstacleNumber": 2,
      "points": 8
    },
    "death19": {
      "time": 229.87998962402345,
      "ballVelocity": 8.558632850646973,
      "ballColor": "Pink",
      "hitColor": "TealCollider",
      "obstacleType": "Ring",
      "obstacleNumber": 1,
      "points": 8
    },
    "death20": {
      "time": 241.4399871826172,
      "ballVelocity": 6.103198528289795,
      "ballColor": "Pink",
      "hitColor": "Untagged",
      "obstacleType": "_New_Base_Deathline",
      "obstacleNumber": 1,
      "points": 8
    },
    "death21": {
      "time": 252.45999145507813,
      "ballVelocity": 13.456756591796875,
      "ballColor": "Pink",
      "hitColor": "Untagged",
      "obstacleType": "_New_Base_Deathline",
      "obstacleNumber": 1,
      "points": 8
    },
    "death22": {
      "time": 271.5400085449219,
      "ballVelocity": 3.843247890472412,
      "ballColor": "Pink",
      "hitColor": "YellowCollider",
      "obstacleType": "Ring",
      "obstacleNumber": 1,
      "points": 9
    },
    "death23": {
      "time": 276.2200012207031,
      "ballVelocity": 4.790316581726074,
      "ballColor": "Pink",
      "hitColor": "TealCollider",
      "obstacleType": "Ring",
      "obstacleNumber": 1,
      "points": 9
    },
    "death24": {
      "time": 281.0799865722656,
      "ballVelocity": 5.854964733123779,
      "ballColor": "Pink",
      "hitColor": "TealCollider",
      "obstacleType": "Ring",
      "obstacleNumber": 1,
      "points": 9
    },
    "death25": {
      "time": 310.5799865722656,
      "ballVelocity": 3.234694242477417,
      "ballColor": "Pink",
      "hitColor": "TealCollider",
      "obstacleType": "Ring",
      "obstacleNumber": 1,
      "points": 10
    },
    "death26": {
      "time": 320.94000244140627,
      "ballVelocity": 13.306684494018555,
      "ballColor": "Pink",
      "hitColor": "YellowCollider",
      "obstacleType": "Ring",
      "obstacleNumber": 1,
      "points": 10
    },
    "death27": {
      "time": 334.239990234375,
      "ballVelocity": 4.285434246063232,
      "ballColor": "Pink",
      "hitColor": "TealCollider",
      "obstacleType": "Ring",
      "obstacleNumber": 1,
      "points": 11
    },
    "death28": {
      "time": 349.3399963378906,
      "ballVelocity": 3.098965644836426,
      "ballColor": "Pink",
      "hitColor": "TealCollider",
      "obstacleType": "Ring",
      "obstacleNumber": 1,
      "points": 12
    },
    "death29": {
      "time": 366.3399963378906,
      "ballVelocity": 1.9328927993774415,
      "ballColor": "Pink",
      "hitColor": "PurpleCollider",
      "obstacleType": "Ring",
      "obstacleNumber": 1,
      "points": 13
    },
    "death30": {
      "time": 379.3399963378906,
      "ballVelocity": 8.322502136230469,
      "ballColor": "Pink",
      "hitColor": "TealCollider",
      "obstacleType": "Ring",
      "obstacleNumber": 1,
      "points": 14
    },
    "death31": {
      "time": 384.1999816894531,
      "ballVelocity": 9.433732986450196,
      "ballColor": "Pink",
      "hitColor": "TealCollider",
      "obstacleType": "Ring",
      "obstacleNumber": 1,
      "points": 14
    },
    "death32": {
      "time": 420.97998046875,
      "ballVelocity": 7.254713535308838,
      "ballColor": "Teal",
      "hitColor": "YellowCollider",
      "obstacleType": "ThickColliders",
      "obstacleNumber": 3,
      "points": 16
    }
  }
}