{
  "SimID": "112221",
  "SimType": "Button",
  "CarAware": [
    41.8984184265137,
    43.6202697753906,
    43.8520584106445,
    89.1177978515625,
    89.3496398925781,
    108.68798828125,
    108.886665344238,
    109.085304260254,
    158.987045288086,
    159.285049438477,
    186.967895507813,
    187.233123779297,
    220.51318359375,
    220.74494934082,
    261.87255859375,
    262.0712890625,
    280.416534423828,
    280.615203857422,
    307.171508789063,
    307.370178222656,
    342.174285888672,
    342.372985839844,
    363.037628173828,
    363.269500732422
  ]
}