{
  "SimID": "141424",
  "SimType": "Button",
  "CarAware": [
    7.62672424316406,
    16.5365657806396,
    18.1262168884277,
    18.3581027984619,
    24.751106262207,
    24.9498615264893,
    33.9914360046387,
    34.1902542114258,
    74.6287078857422,
    74.8605728149414,
    75.291145324707,
    119.735534667969,
    119.934288024902,
    154.047210693359,
    154.246002197266,
    183.722671508789,
    183.954452514648,
    207.768142700195,
    208.165786743164,
    208.397262573242,
    238.369979858398,
    238.568786621094,
    262.150817871094,
    262.349578857422,
    334.021026611328,
    334.252899169922,
    355.980987548828,
    356.146575927734,
    365.785736083984,
    366.911987304688
  ]
}